<?xml version="1.0" encoding="UTF-8" standalone="no"?>
<svg
   version="1.1"
   id="Layer_1"
   x="0px"
   y="0px"
   viewBox="0 0 92.27 122.88"
   style="enable-background:new 0 0 92.27 122.88"
   xml:space="preserve"
   sodipodi:docname="bus-stop.svg"
   inkscape:version="1.2 (dc2aedaf03, 2022-05-15)"
   xmlns:inkscape="http://www.inkscape.org/namespaces/inkscape"
   xmlns:sodipodi="http://sodipodi.sourceforge.net/DTD/sodipodi-0.dtd"
   xmlns="http://www.w3.org/2000/svg"
   xmlns:svg="http://www.w3.org/2000/svg"
   xmlns:rdf="http://www.w3.org/1999/02/22-rdf-syntax-ns#"
   xmlns:cc="http://creativecommons.org/ns#"
   xmlns:dc="http://purl.org/dc/elements/1.1/"><metadata
     id="metadata3737"><rdf:RDF><cc:Work
         rdf:about=""><dc:format>image/svg+xml</dc:format><dc:type
           rdf:resource="http://purl.org/dc/dcmitype/StillImage" /></cc:Work></rdf:RDF></metadata><defs
     id="defs3735" /><sodipodi:namedview
     pagecolor="#ffffff"
     bordercolor="#666666"
     borderopacity="1"
     objecttolerance="10"
     gridtolerance="10"
     guidetolerance="10"
     inkscape:pageopacity="0"
     inkscape:pageshadow="2"
     inkscape:window-width="1366"
     inkscape:window-height="715"
     id="namedview3733"
     showgrid="false"
     showguides="true"
     inkscape:guide-bbox="true"
     inkscape:zoom="2.4456412"
     inkscape:cx="-44.160198"
     inkscape:cy="28.622351"
     inkscape:window-x="-8"
     inkscape:window-y="-8"
     inkscape:window-maximized="1"
     inkscape:current-layer="Layer_1"
     inkscape:showpageshadow="2"
     inkscape:pagecheckerboard="0"
     inkscape:deskcolor="#d1d1d1" /><style
     type="text/css"
     id="style3726">.st0{fill-rule:evenodd;clip-rule:evenodd;}</style><g
     id="g3730"
     style="fill:#007bff;fill-opacity:1"><path
       class="st0"
       d="M47.49,116.85c6.31-4.01,11.98-8.87,16.92-14.29c10.73-11.75,17.97-26.11,20.87-40.2 c2.88-13.91,1.52-27.54-4.85-38.06c-1.81-3.02-4.08-5.78-6.78-8.26c-7.74-7.05-16.6-10.41-25.52-10.5 c-9.37-0.07-18.87,3.45-27.27,10.14c-3.58,2.86-6.53,6.15-8.82,9.78c-5.9,9.28-7.69,20.8-5.74,32.85 c1.97,12.23,7.78,25.02,17.04,36.61c6.44,8.08,14.54,15.58,24.18,21.91L47.49,116.85L47.49,116.85L47.49,116.85L47.49,116.85z M68.49,69.05h-2.32v4.5c0,1.57-1.28,2.85-2.85,2.85H60.4c-1.57,0-2.85-1.28-2.85-2.85v-4.5H34.64v4.5c0,1.57-1.28,2.85-2.85,2.85 h-2.91c-1.57,0-2.85-1.28-2.85-2.85v-4.5h-2.25v-35.7c0-3.29,1.92-5.68,5.78-7.17c3.74-1.46,8.51-2.2,16.57-2.2 s12.83,0.74,16.57,2.2c3.86,1.49,5.78,3.88,5.78,7.17V69.05L68.49,69.05L68.49,69.05z M35.43,60.63h21.41 c0.16,0,0.29,0.2,0.29,0.46v1.36c0,0.25-0.13,0.46-0.29,0.46H35.43c-0.16,0-0.29-0.2-0.29-0.46v-1.36 C35.15,60.83,35.28,60.63,35.43,60.63L35.43,60.63L35.43,60.63L35.43,60.63z M35.43,64.08h21.41c0.16,0,0.29,0.2,0.29,0.46v1.37 c0,0.25-0.13,0.46-0.29,0.46H35.43c-0.16,0-0.29-0.2-0.29-0.46v-1.37C35.15,64.29,35.28,64.08,35.43,64.08L35.43,64.08L35.43,64.08 z M27.52,33.54h16.41c0.46,0,0.83,0.38,0.83,0.84v12.19c0,0.46-0.38,0.83-0.83,0.83H27.52c-0.46,0-0.83-0.38-0.83-0.83v-12.2 C26.68,33.91,27.06,33.54,27.52,33.54L27.52,33.54L27.52,33.54L27.52,33.54z M48.28,33.54h16.41c0.46,0,0.84,0.38,0.84,0.84v12.19 c0,0.46-0.38,0.83-0.84,0.83H48.28c-0.46,0-0.83-0.38-0.83-0.83v-12.2C47.45,33.91,47.82,33.54,48.28,33.54L48.28,33.54 L48.28,33.54L48.28,33.54z M66.14,63.88c0-0.85-0.29-1.56-0.87-2.14c-0.58-0.58-1.31-0.87-2.14-0.87c-0.82,0-1.53,0.29-2.12,0.87 c-0.6,0.58-0.89,1.29-0.89,2.14c0,0.82,0.29,1.51,0.89,2.1c0.6,0.58,1.31,0.87,2.12,0.87c0.84,0,1.56-0.29,2.14-0.87 C65.85,65.39,66.14,64.7,66.14,63.88L66.14,63.88L66.14,63.88L66.14,63.88z M32.17,63.88c0-0.85-0.29-1.56-0.87-2.14 c-0.58-0.58-1.29-0.87-2.14-0.87c-0.83,0-1.56,0.29-2.14,0.87c-0.58,0.58-0.86,1.29-0.86,2.14c0,0.82,0.28,1.51,0.86,2.1 c0.58,0.58,1.31,0.87,2.14,0.87c0.85,0,1.56-0.29,2.14-0.87C31.87,65.39,32.17,64.7,32.17,63.88L32.17,63.88L32.17,63.88 L32.17,63.88z M68.52,106.27c-5.6,6.12-12.09,11.61-19.42,16.06c-0.88,0.66-2.13,0.75-3.13,0.11 c-10.8-6.87-19.85-15.13-26.99-24.09C9.15,86.02,2.94,72.34,0.83,59.16c-2.16-13.36-0.14-26.2,6.51-36.68 c2.63-4.13,5.97-7.89,10.07-11.14C26.78,3.88,37.51-0.07,48.17,0c10.28,0.09,20.42,3.9,29.22,11.93c3.09,2.81,5.67,5.99,7.78,9.48 c7.15,11.77,8.69,26.81,5.56,42.01c-3.11,15.04-10.8,30.33-22.19,42.8L68.52,106.27L68.52,106.27L68.52,106.27L68.52,106.27z"
       id="path3728"
       style="fill:#007bff;fill-opacity:1" /></g><path
     style="fill:#ffffff;fill-opacity:1;stroke-width:0.1445647"
     d="M 27.646226,75.993794 C 27.2958,75.80879 26.813926,75.380539 26.575394,75.042122 L 26.1417,74.42682 26.094295,71.692092 26.04689,68.957363 H 24.973919 23.900947 V 50.540592 c 0,-18.040989 0.0059,-18.435975 0.290674,-19.357866 1.005123,-3.254208 4.788036,-5.41723 11.282974,-6.451459 4.960023,-0.789816 14.355224,-0.900568 19.717252,-0.23243 5.440105,0.677868 9.102648,2.006722 11.150338,4.045599 1.299041,1.29345 1.767398,2.245453 1.94775,3.959073 0.07249,0.688792 0.132959,9.172688 0.134372,18.853102 l 0.0026,17.600752 H 67.270358 66.11384 l -0.0032,2.566024 c -0.0027,2.185071 -0.0428,2.651871 -0.270059,3.144282 -0.623564,1.351081 -1.379636,1.662494 -4.036327,1.662494 -1.820781,0 -2.064585,-0.03103 -2.642949,-0.336369 -0.350425,-0.185004 -0.8323,-0.613255 -1.070832,-0.951672 l -0.433694,-0.615302 -0.0474,-2.734728 -0.0474,-2.734729 H 46.091629 34.621262 l -0.0474,2.734729 -0.04741,2.734728 -0.435628,0.626402 c -0.254404,0.365813 -0.70316,0.761714 -1.078726,0.95167 -0.57659,0.291632 -0.854362,0.325271 -2.685917,0.325271 -1.859521,0 -2.099987,-0.03018 -2.679956,-0.336369 z m 2.990015,-9.441795 c 0.703372,-0.35991 1.438255,-1.416457 1.562366,-2.246225 0.15098,-1.009398 -0.225054,-2.011389 -1.016194,-2.707778 -0.736542,-0.64833 -1.270426,-0.802993 -2.437731,-0.706191 -1.823388,0.15121 -3.036818,1.993602 -2.536574,3.851368 0.2023,0.751284 1.152972,1.762964 1.8867,2.007777 0.704777,0.235155 1.871569,0.143815 2.541433,-0.198951 z m 33.849782,0.02596 c 0.556852,-0.259254 0.868546,-0.52777 1.17672,-1.013711 1.337403,-2.108865 -0.03919,-4.702512 -2.495889,-4.702512 -0.985211,0 -1.470407,0.177887 -2.09429,0.767831 -1.318335,1.246616 -1.367062,3.095533 -0.114589,4.348006 0.995991,0.995991 2.228002,1.205649 3.528048,0.600386 z m -7.509094,-0.201576 c 0.132914,-0.08431 0.175007,-0.430931 0.144565,-1.190444 l -0.04295,-1.071497 -10.905533,-0.03706 c -8.628792,-0.02933 -10.929608,8.67e-4 -11.020845,0.144564 -0.16688,0.262854 -0.145818,1.669835 0.02991,1.998189 0.145909,0.272634 0.41797,0.279571 10.878494,0.277413 5.900863,-0.0012 10.813222,-0.05574 10.916355,-0.121163 z m 0,-3.469552 c 0.132914,-0.08431 0.175007,-0.430932 0.144565,-1.190445 l -0.04295,-1.071497 -10.905533,-0.03706 c -8.628792,-0.02933 -10.929608,8.67e-4 -11.020845,0.144564 -0.181358,0.285657 -0.139857,1.910741 0.05374,2.104338 0.131844,0.131844 2.742624,0.172947 10.878494,0.171264 5.887759,-0.0012 10.789395,-0.05574 10.892528,-0.121162 z M 44.637785,47.095926 c 0.19532,-0.278858 0.225044,-1.152945 0.225044,-6.617809 0,-5.464864 -0.02972,-6.338951 -0.225044,-6.61781 L 44.41274,33.539011 h -8.655359 c -7.675755,0 -8.68107,0.02571 -8.882531,0.227173 -0.19973,0.19973 -0.227174,1.006068 -0.227174,6.674735 0,5.796653 0.02415,6.47425 0.239253,6.711932 0.226702,0.250503 0.69266,0.264371 8.882532,0.264371 h 8.643279 z m 20.670623,0.09412 c 0.199713,-0.199713 0.227173,-1.004681 0.227173,-6.65948 0,-4.157494 -0.05292,-6.531198 -0.14965,-6.711932 -0.145418,-0.271715 -0.396437,-0.279626 -8.873029,-0.279626 -7.938085,0 -8.741238,0.02152 -8.921784,0.239066 -0.161674,0.194806 -0.198407,1.441499 -0.198407,6.733913 0,6.262339 0.01005,6.50219 0.280619,6.700039 0.234879,0.171747 1.676472,0.205193 8.844262,0.205193 7.592378,0 8.589409,-0.02576 8.790816,-0.227173 z"
     id="path3767"
     inkscape:connector-curvature="0" /><path
     style="fill:#007bff;fill-opacity:1;stroke:#007bff;stroke-width:0.204445;stroke-opacity:1"
     d="M 44.877916,114.87187 C 17.483142,95.609548 1.8919488,65.380089 6.4350818,40.335806 8.8579531,26.979587 17.119513,16.375161 30.053468,10.019565 36.629686,6.7880876 42.210268,5.5541766 49.207613,5.7844308 54.58663,5.9614325 59.081479,7.0987581 63.895638,9.5009209 71.993739,13.5417 78.179745,19.69499 81.988306,27.497901 c 2.895276,5.931788 4.292633,11.958837 4.526719,19.524532 0.532092,17.197392 -6.19698,35.675217 -18.704949,51.363228 -2.383271,2.989199 -9.171155,9.922149 -11.894269,12.148479 -3.551249,2.90337 -7.909405,6.0046 -8.424139,5.99454 -0.145635,-0.003 -1.321823,-0.74841 -2.613752,-1.65681 z M 33.164499,76.12115 c 1.272454,-0.603819 1.487356,-1.226149 1.488225,-4.309717 l 7.65e-4,-2.708901 h 11.44894 11.44894 l 8.18e-4,2.708901 c 6.14e-4,2.356342 0.05446,2.796979 0.413366,3.385652 0.605377,0.992936 1.463627,1.26548 3.985031,1.26548 2.43257,0 3.052238,-0.206516 3.809126,-1.269466 0.423138,-0.594243 0.479749,-0.941205 0.550912,-3.376434 l 0.07926,-2.714133 h 1.104927 1.104927 l -0.05527,-18.762308 -0.05527,-18.762307 -0.681588,-1.384355 c -1.023322,-2.078442 -2.791959,-3.357645 -6.229773,-4.505809 -3.687162,-1.231441 -8.353047,-1.763229 -15.475406,-1.763788 -7.212742,-5.72e-4 -11.493718,0.490555 -15.321571,1.757714 -2.710782,0.897367 -4.017766,1.648857 -5.291463,3.042483 -1.896223,2.074771 -1.765163,0.518715 -1.829615,21.722731 l -0.05671,18.655639 h 1.105951 1.105951 l 0.08268,2.708901 c 0.09113,2.985778 0.282423,3.534282 1.489274,4.270245 0.858133,0.523306 4.702618,0.549569 5.777571,0.03947 z"
     id="path9823" /><rect
     style="fill:#007bff;fill-opacity:1;stroke:#007bff;stroke-opacity:1"
     id="rect9889"
     width="17.347765"
     height="13.155388"
     x="26.889034"
     y="33.683575" /><rect
     style="fill:#007bff;fill-opacity:1;stroke:#007bff;stroke-opacity:1"
     id="rect9889-7"
     width="17.347765"
     height="13.155388"
     x="47.923199"
     y="33.82814" /><path
     style="fill:#007bff;fill-opacity:1;stroke:#007bff;stroke-width:0.144565;stroke-opacity:1"
     d="m 27.847382,66.409712 c -1.949119,-0.971287 -2.161074,-3.490136 -0.410853,-4.882542 0.759894,-0.604543 2.090042,-0.704491 3.06896,-0.230605 1.718908,0.832109 2.096118,3.14437 0.742265,4.550007 -0.966181,1.003135 -2.130477,1.195956 -3.400372,0.56314 z"
     id="path9915" /><path
     style="fill:#007bff;fill-opacity:1;stroke:#007bff;stroke-width:0.144565;stroke-opacity:1"
     d="m 35.261794,62.689674 c -0.04175,-0.108798 -0.05613,-0.580855 -0.03196,-1.049016 l 0.04395,-0.851201 H 46.11614 56.958493 v 1.011953 1.011953 l -10.810395,0.03706 c -9.038735,0.03099 -10.822836,0.0046 -10.886304,-0.160752 z"
     id="path9917" /><path
     style="fill:#007bff;fill-opacity:1;stroke:#007bff;stroke-width:0.144565;stroke-opacity:1"
     d="m 35.261794,66.159227 c -0.04175,-0.108798 -0.05613,-0.580855 -0.03196,-1.049016 l 0.04395,-0.851201 10.884846,-0.03706 10.884845,-0.03706 -0.04249,1.049011 -0.04249,1.04901 -10.810395,0.03706 c -9.038735,0.03099 -10.822836,0.0046 -10.886304,-0.160751 z"
     id="path9919" /><path
     style="fill:#007bff;fill-opacity:1;stroke:#007bff;stroke-width:0.144565;stroke-opacity:1"
     d="m 62.018257,66.526215 c -1.540288,-0.73038 -2.196253,-2.28469 -1.583312,-3.751663 0.506943,-1.213285 1.52824,-1.82845 2.891479,-1.741645 1.020383,0.06497 1.685719,0.432145 2.234603,1.233189 0.909131,1.32679 0.438477,3.300369 -0.986121,4.135074 -0.681245,0.399157 -1.857276,0.456677 -2.556649,0.125045 z"
     id="path9921" /></svg>
