<?xml version="1.0" encoding="UTF-8" standalone="no"?>
<svg
   version="1.1"
   id="Layer_1"
   x="0px"
   y="0px"
   viewBox="0 0 92.27 122.88"
   style="enable-background:new 0 0 92.27 122.88"
   xml:space="preserve"
   sodipodi:docname="metro-stop.svg"
   inkscape:version="1.2 (dc2aedaf03, 2022-05-15)"
   xmlns:inkscape="http://www.inkscape.org/namespaces/inkscape"
   xmlns:sodipodi="http://sodipodi.sourceforge.net/DTD/sodipodi-0.dtd"
   xmlns="http://www.w3.org/2000/svg"
   xmlns:svg="http://www.w3.org/2000/svg"
   xmlns:rdf="http://www.w3.org/1999/02/22-rdf-syntax-ns#"
   xmlns:cc="http://creativecommons.org/ns#"
   xmlns:dc="http://purl.org/dc/elements/1.1/"><metadata
     id="metadata3737"><rdf:RDF><cc:Work
         rdf:about=""><dc:format>image/svg+xml</dc:format><dc:type
           rdf:resource="http://purl.org/dc/dcmitype/StillImage" /></cc:Work></rdf:RDF></metadata><defs
     id="defs3735" /><sodipodi:namedview
     pagecolor="#ffffff"
     bordercolor="#666666"
     borderopacity="1"
     objecttolerance="10"
     gridtolerance="10"
     guidetolerance="10"
     inkscape:pageopacity="0"
     inkscape:pageshadow="2"
     inkscape:window-width="1366"
     inkscape:window-height="715"
     id="namedview3733"
     showgrid="false"
     showguides="true"
     inkscape:guide-bbox="true"
     inkscape:zoom="0.86466475"
     inkscape:cx="-197.76451"
     inkscape:cy="37.008563"
     inkscape:window-x="-8"
     inkscape:window-y="-8"
     inkscape:window-maximized="1"
     inkscape:current-layer="Layer_1"
     inkscape:showpageshadow="2"
     inkscape:pagecheckerboard="0"
     inkscape:deskcolor="#d1d1d1"><sodipodi:guide
       position="47.417224,-10.986917"
       orientation="1,0"
       id="guide168"
       inkscape:locked="false" /><sodipodi:guide
       position="-18.793412,73.438871"
       orientation="0,-1"
       id="guide9095"
       inkscape:locked="false" /></sodipodi:namedview><style
     type="text/css"
     id="style3726">.st0{fill-rule:evenodd;clip-rule:evenodd;}</style><path
     style="fill:#007bff;fill-opacity:1;stroke-width:0.1445647"
     d="m 46.091629,122.40031 c -0.318042,-0.1824 -1.391435,-0.87559 -2.385318,-1.54043 C 36.92119,116.32114 30.586008,110.98269 24.924867,105.03338 4.0240357,83.068637 -4.7063995,54.7067 2.6503082,32.671623 5.8740627,23.015717 11.37391,15.674383 20.013252,9.4951339 36.268241,-2.1311723 55.661324,-3.0209244 71.101322,7.1512196 c 5.432167,3.5788074 9.764395,7.8395774 13.060005,12.8445884 4.063774,6.171616 6.438765,12.794186 7.578681,21.13285 0.277494,2.029914 0.316399,2.967753 0.317836,7.661929 0.0017,5.725187 -0.119178,7.352703 -0.875467,11.782023 -1.916797,11.226023 -6.39432,22.595316 -12.939434,32.855722 -6.805586,10.668728 -16.068007,20.186238 -26.224161,26.946368 -3.112611,2.07182 -3.671806,2.36096 -4.562198,2.35899 -0.55347,-10e-4 -0.958128,-0.10006 -1.364955,-0.33338 z m 3.26397,-6.70109 C 57.567333,110.18373 65.247118,102.63633 71.248998,94.183226 85.699858,73.830503 90.569514,49.027066 83.67877,30.872603 80.942897,23.664632 76.704032,18.03875 70.450781,13.316229 65.168783,9.3272078 59.234622,6.8005626 52.88617,5.8375744 50.74594,5.5129258 45.202417,5.4648012 43.200335,5.7534894 35.032159,6.9312916 28.069712,9.9995165 20.840238,15.607181 19.142773,16.923847 15.358586,20.758675 14.025151,22.513466 9.3789038,28.627895 6.6001932,35.798715 5.76295,43.835135 5.5085779,46.276767 5.469405,51.475253 5.6874809,53.850352 7.6556032,75.285484 20.901075,97.020853 41.537841,112.67958 c 2.320516,1.76075 5.760536,4.1287 5.997947,4.1287 0.09272,0 0.911636,-0.49908 1.819811,-1.10906 z"
     id="path3769"
     inkscape:connector-curvature="0" /><path
     style="fill:#ffffff;fill-opacity:1;stroke-width:0.28912941"
     d="M 26.929925,84.012483 C 26.7391,83.821657 26.58297,83.32933 26.58297,82.918422 c 0,-0.584395 0.865823,-1.568085 3.975529,-4.516728 6.350551,-6.021633 6.967117,-6.527339 7.685201,-6.303384 0.344998,0.107597 0.722858,0.34073 0.839689,0.518074 0.64818,0.983905 0.120719,1.662187 -5.175383,6.65522 -5.339816,5.034245 -6.140639,5.57832 -6.978081,4.740879 z"
     id="path4889"
     inkscape:connector-curvature="0" /><path
     style="fill:#ffffff;fill-opacity:1;stroke-width:0.28912941"
     d="m 62.93798,79.224459 c -4.116017,-4.120787 -5.129035,-5.28943 -5.129035,-5.91698 0,-0.75809 0.667644,-1.380606 1.480691,-1.380606 0.199204,0 2.679813,2.304686 5.512466,5.121524 5.25928,5.229916 5.781032,5.986377 4.803323,6.964086 -0.835394,0.835394 -1.596392,0.288906 -6.667445,-4.788024 z"
     id="path4891"
     inkscape:connector-curvature="0" /><g
     id="g151"
     transform="matrix(0.5274709,0,0,0.5274709,23.581527,18.648845)"
     style="fill:#ffffff;fill-opacity:1"><path
       class="st0"
       d="m 26.06,0 h 35.66 c 5.85,0 13.01,7.56 14.14,13.28 l 12.75,64.33 c 1.14,5.73 -6.25,13.98 -12.09,13.98 H 19.26 C 5.41,91.59 -2.46,88.81 0.7,72.09 l 11,-58.25 C 12.78,8.08 20.2,0 26.06,0 Z M 8.97,122.88 18.85,99.97 h 12.19 l -3.26,7.36 H 60.46 L 57.1,99.76 h 11.98 l 9.77,22.7 H 67.08 l -3.47,-7.57 h -39.4 l -3.26,7.99 H 8.97 Z M 28.55,68.71 c 4.36,0 7.89,3.53 7.89,7.89 0,4.36 -3.53,7.89 -7.89,7.89 -4.36,0 -7.89,-3.53 -7.89,-7.89 0,-4.36 3.53,-7.89 7.89,-7.89 z M 36.93,7.43 h 14.22 c 0.36,0 0.66,0.3 0.66,0.66 v 6.68 c 0,0.36 -0.3,0.66 -0.66,0.66 H 36.93 c -0.36,0 -0.66,-0.3 -0.66,-0.66 V 8.09 c 0,-0.36 0.3,-0.66 0.66,-0.66 z M 10.27,61.36 18.06,22.97 h 52.48 l 7.28,38.39 z m 49.26,7.35 c 4.36,0 7.89,3.53 7.89,7.89 0,4.36 -3.53,7.89 -7.89,7.89 -4.36,0 -7.89,-3.53 -7.89,-7.89 0,-4.36 3.53,-7.89 7.89,-7.89 z"
       id="path149"
       style="clip-rule:evenodd;fill-rule:evenodd;fill:#ffffff;fill-opacity:1" /></g><path
     style="fill:#007bff;fill-opacity:1;stroke-width:0.289129"
     d="M 43.427479,113.81431 C 24.331193,99.891497 11.098745,80.772217 6.9791337,61.150869 2.4752199,39.699124 9.6459548,21.888021 26.889035,11.697463 33.782296,7.6235855 40.26166,5.7825881 47.706352,5.7825881 c 6.254678,0 10.517287,0.9854752 16.191246,3.7432635 5.564186,2.7044324 11.530807,7.7004974 14.866187,12.4479834 9.522303,13.553785 10.378103,33.535211 2.306293,53.847954 -6.143673,15.460573 -17.884811,30.230311 -31.285814,39.355931 -1.083443,0.73779 -2.124309,1.3399 -2.313035,1.33804 -0.188724,-0.002 -2.008412,-1.21752 -4.04375,-2.70145 z"
     id="path6886" /><g
     id="g151-6"
     style="fill:#414141;fill-opacity:1"
     transform="matrix(0.47458863,0,0,0.47458863,26.426136,22.783349)"><path
       class="st0"
       d="m 26.06,0 h 35.66 c 5.85,0 13.01,7.56 14.14,13.28 l 12.75,64.33 c 1.14,5.73 -6.25,13.98 -12.09,13.98 H 19.26 C 5.41,91.59 -2.46,88.81 0.7,72.09 l 11,-58.25 C 12.78,8.08 20.2,0 26.06,0 Z M 8.97,122.88 18.85,99.97 h 12.19 l -3.26,7.36 H 60.46 L 57.1,99.76 h 11.98 l 9.77,22.7 H 67.08 l -3.47,-7.57 h -39.4 l -3.26,7.99 H 8.97 Z M 28.55,68.71 c 4.36,0 7.89,3.53 7.89,7.89 0,4.36 -3.53,7.89 -7.89,7.89 -4.36,0 -7.89,-3.53 -7.89,-7.89 0,-4.36 3.53,-7.89 7.89,-7.89 z M 36.93,7.43 h 14.22 c 0.36,0 0.66,0.3 0.66,0.66 v 6.68 c 0,0.36 -0.3,0.66 -0.66,0.66 H 36.93 c -0.36,0 -0.66,-0.3 -0.66,-0.66 V 8.09 c 0,-0.36 0.3,-0.66 0.66,-0.66 z M 10.27,61.36 18.06,22.97 h 52.48 l 7.28,38.39 z m 49.26,7.35 c 4.36,0 7.89,3.53 7.89,7.89 0,4.36 -3.53,7.89 -7.89,7.89 -4.36,0 -7.89,-3.53 -7.89,-7.89 0,-4.36 3.53,-7.89 7.89,-7.89 z"
       id="path149-4"
       style="clip-rule:evenodd;fill:#414141;fill-opacity:1;fill-rule:evenodd" /></g></svg>
